LSD/aula2/PROJ1/simulation/qsim/scan.msim.vcd
$comment
	File created using the following command:
		vcd file scan.msim.vcd -direction
$end
$date
	Tue Feb 18 09:41:53 2025
$end
$version
	Questa Intel Starter FPGA Edition Version 2021.2
$end
$timescale
	1ps
$end

$scope module scan_vhd_vec_tst $end
$var wire 1 ! LEDR [0] $end
$var wire 1 " SW [1] $end
$var wire 1 # SW [0] $end

$scope module i1 $end
$var wire 1 $ gnd $end
$var wire 1 % vcc $end
$var wire 1 & unknown $end
$var wire 1 ' devoe $end
$var wire 1 ( devclrn $end
$var wire 1 ) devpor $end
$var wire 1 * ww_devoe $end
$var wire 1 + ww_devclrn $end
$var wire 1 , ww_devpor $end
$var wire 1 - ww_LEDR [0] $end
$var wire 1 . ww_SW [1] $end
$var wire 1 / ww_SW [0] $end
$var wire 1 0 \LEDR[0]~output_o\ $end
$var wire 1 1 \SW[1]~input_o\ $end
$var wire 1 2 \SW[0]~input_o\ $end
$var wire 1 3 \inst2~0_combout\ $end
$upscope $end
$upscope $end
$enddefinitions $end
#0
$dumpvars
0$
1%
x&
1'
1(
1)
1*
1+
1,
10
01
12
13
0"
1#
0.
1/
1!
1-
$end
#20000
0#
0/
02
03
00
0-
0!
#40000
1#
1"
1/
1.
11
12
#60000
0#
0/
02
13
10
1-
1!
#80000
1#
0"
1/
0.
01
12
#100000
0#
0/
02
03
00
0-
0!
#120000
1#
1"
1/
1.
11
12
#140000
0#
0/
02
13
10
1-
1!
#160000
1#
0"
1/
0.
01
12
#180000
0#
0/
02
03
00
0-
0!
#200000
1#
1"
1/
1.
11
12
#220000
0#
0/
02
13
10
1-
1!
#240000
1#
0"
1/
0.
01
12
#260000
0#
0/
02
03
00
0-
0!
#280000
1#
1"
1/
1.
11
12
#300000
0#
0/
02
13
10
1-
1!
#320000
1#
0"
1/
0.
01
12
#340000
0#
0/
02
03
00
0-
0!
#360000
1#
1"
1/
1.
11
12
#380000
0#
0/
02
13
10
1-
1!
#400000
1#
0"
1/
0.
01
12
#420000
0#
0/
02
03
00
0-
0!
#440000
1#
1"
1/
1.
11
12
#460000
0#
0/
02
13
10
1-
1!
#480000
1#
0"
1/
0.
01
12
#500000
0#
0/
02
03
00
0-
0!
#520000
1#
1"
1/
1.
11
12
#540000
0#
0/
02
13
10
1-
1!
#560000
1#
0"
1/
0.
01
12
#580000
0#
0/
02
03
00
0-
0!
#600000
1#
1"
1/
1.
11
12
#620000
0#
0/
02
13
10
1-
1!
#640000
1#
0"
1/
0.
01
12
#660000
0#
0/
02
03
00
0-
0!
#680000
1#
1"
1/
1.
11
12
#700000
0#
0/
02
13
10
1-
1!
#720000
1#
0"
1/
0.
01
12
#740000
0#
0/
02
03
00
0-
0!
#760000
1#
1"
1/
1.
11
12
#780000
0#
0/
02
13
10
1-
1!
#800000
1#
0"
1/
0.
01
12
#820000
0#
0/
02
03
00
0-
0!
#840000
1#
1"
1/
1.
11
12
#860000
0#
0/
02
13
10
1-
1!
#880000
1#
0"
1/
0.
01
12
#900000
0#
0/
02
03
00
0-
0!
#920000
1#
1"
1/
1.
11
12
#940000
0#
0/
02
13
10
1-
1!
#960000
1#
0"
1/
0.
01
12
#980000
0#
0/
02
03
00
0-
0!
