ISD/127378/ex3_4/simulation/qsim/Ex3.msim.vcd
$comment
	File created using the following command:
		vcd file Ex3.msim.vcd -direction
$end
$date
	Wed Nov 27 09:57:34 2024
$end
$version
	Questa Intel Starter FPGA Edition Version 2021.2
$end
$timescale
	1ps
$end

$scope module ex3_vhd_vec_tst $end
$var wire 1 ! A0 $end
$var wire 1 " A1 $end
$var wire 1 # A2 $end
$var wire 1 $ A3 $end
$var wire 1 % D $end

$scope module i1 $end
$var wire 1 & gnd $end
$var wire 1 ' vcc $end
$var wire 1 ( unknown $end
$var wire 1 ) devoe $end
$var wire 1 * devclrn $end
$var wire 1 + devpor $end
$var wire 1 , ww_devoe $end
$var wire 1 - ww_devclrn $end
$var wire 1 . ww_devpor $end
$var wire 1 / ww_D $end
$var wire 1 0 ww_A1 $end
$var wire 1 1 ww_A2 $end
$var wire 1 2 ww_A3 $end
$var wire 1 3 ww_A0 $end
$var wire 1 4 \D~output_o\ $end
$var wire 1 5 \A1~input_o\ $end
$var wire 1 6 \A0~input_o\ $end
$var wire 1 7 \A2~input_o\ $end
$var wire 1 8 \A3~input_o\ $end
$var wire 1 9 \inst~0_combout\ $end
$upscope $end
$upscope $end
$enddefinitions $end
#0
$dumpvars
0!
0"
0#
0$
0%
0&
1'
x(
1)
1*
1+
1,
1-
1.
0/
00
01
02
03
04
05
06
07
08
09
$end
#12500
1!
13
16
#25000
0!
1"
03
10
15
06
#37500
1!
13
16
19
14
1/
1%
#50000
0!
0"
1#
03
00
11
17
05
06
09
04
0/
0%
#62500
1!
13
16
19
14
1/
1%
#75000
0!
1"
03
10
15
06
#87500
1!
13
16
#100000
0!
0"
0#
1$
03
00
01
12
18
07
05
06
09
04
0/
0%
#112500
1!
13
16
19
14
1/
1%
#125000
0!
1"
03
10
15
06
#137500
1!
13
16
#150000
0!
0"
1#
03
00
11
17
05
06
#162500
1!
13
16
#175000
0!
1"
03
10
15
06
#187500
1!
13
16
#200000
0!
0"
0#
0$
03
00
01
02
08
07
05
06
09
04
0/
0%
#212500
1!
13
16
#225000
0!
1"
03
10
15
06
#237500
1!
13
16
19
14
1/
1%
#250000
0!
0"
1#
03
00
11
17
05
06
09
04
0/
0%
#262500
1!
13
16
19
14
1/
1%
#275000
0!
1"
03
10
15
06
#287500
1!
13
16
#300000
0!
0"
0#
1$
03
00
01
12
18
07
05
06
09
04
0/
0%
#312500
1!
13
16
19
14
1/
1%
#325000
0!
1"
03
10
15
06
#337500
1!
13
16
#350000
0!
0"
1#
03
00
11
17
05
06
#362500
1!
13
16
#375000
0!
1"
03
10
15
06
#387500
1!
13
16
#400000
0!
0"
0#
0$
03
00
01
02
08
07
05
06
09
04
0/
0%
#412500
1!
13
16
#425000
0!
1"
03
10
15
06
#437500
1!
13
16
19
14
1/
1%
#450000
0!
0"
1#
03
00
11
17
05
06
09
04
0/
0%
#462500
1!
13
16
19
14
1/
1%
#475000
0!
1"
03
10
15
06
#487500
1!
13
16
#500000
0!
0"
0#
1$
03
00
01
12
18
07
05
06
09
04
0/
0%
#512500
1!
13
16
19
14
1/
1%
#525000
0!
1"
03
10
15
06
#537500
1!
13
16
#550000
0!
0"
1#
03
00
11
17
05
06
#562500
1!
13
16
#575000
0!
1"
03
10
15
06
#587500
1!
13
16
#600000
0!
0"
0#
0$
03
00
01
02
08
07
05
06
09
04
0/
0%
#612500
1!
13
16
#625000
0!
1"
03
10
15
06
#637500
1!
13
16
19
14
1/
1%
#650000
0!
0"
1#
03
00
11
17
05
06
09
04
0/
0%
#662500
1!
13
16
19
14
1/
1%
#675000
0!
1"
03
10
15
06
#687500
1!
13
16
#700000
0!
0"
0#
1$
03
00
01
12
18
07
05
06
09
04
0/
0%
#712500
1!
13
16
19
14
1/
1%
#725000
0!
1"
03
10
15
06
#737500
1!
13
16
#750000
0!
0"
1#
03
00
11
17
05
06
#762500
1!
13
16
#775000
0!
1"
03
10
15
06
#787500
1!
13
16
#800000
0!
0"
0#
0$
03
00
01
02
08
07
05
06
09
04
0/
0%
#812500
1!
13
16
#825000
0!
1"
03
10
15
06
#837500
1!
13
16
19
14
1/
1%
#850000
0!
0"
1#
03
00
11
17
05
06
09
04
0/
0%
#862500
1!
13
16
19
14
1/
1%
#875000
0!
1"
03
10
15
06
#887500
1!
13
16
#900000
0!
0"
0#
1$
03
00
01
12
18
07
05
06
09
04
0/
0%
#912500
1!
13
16
19
14
1/
1%
#925000
0!
1"
03
10
15
06
#937500
1!
13
16
#950000
0!
0"
1#
03
00
11
17
05
06
#962500
1!
13
16
#975000
0!
1"
03
10
15
06
#987500
1!
13
16
