ISD/treino quartus/GateDemo/simulation/qsim/GateDemo.msim.vcd
$comment
	File created using the following command:
		vcd file GateDemo.msim.vcd -direction
$end
$date
	Mon Nov 25 18:19:48 2024
$end
$version
	Questa Intel Starter FPGA Edition Version 2021.2
$end
$timescale
	1ps
$end

$scope module gatedemo_vhd_vec_tst $end
$var wire 1 ! in1 $end
$var wire 1 " in2 $end
$var wire 1 # output1 $end

$scope module i1 $end
$var wire 1 $ gnd $end
$var wire 1 % vcc $end
$var wire 1 & unknown $end
$var wire 1 ' devoe $end
$var wire 1 ( devclrn $end
$var wire 1 ) devpor $end
$var wire 1 * ww_devoe $end
$var wire 1 + ww_devclrn $end
$var wire 1 , ww_devpor $end
$var wire 1 - ww_output1 $end
$var wire 1 . ww_in2 $end
$var wire 1 / ww_in1 $end
$var wire 1 0 \output1~output_o\ $end
$var wire 1 1 \in2~input_o\ $end
$var wire 1 2 \in1~input_o\ $end
$var wire 1 3 \inst~combout\ $end
$var wire 1 4 \ALT_INV_inst~combout\ $end
$upscope $end
$upscope $end
$enddefinitions $end
#0
$dumpvars
0!
0"
1#
0$
1%
x&
1'
1(
1)
1*
1+
1,
1-
0.
0/
10
01
02
03
14
$end
#25000
1"
1.
11
#50000
0"
1!
0.
1/
12
01
#75000
1"
1.
11
13
04
00
0-
0#
#100000
0"
0!
0.
0/
02
01
03
14
10
1-
1#
#125000
1"
1.
11
#150000
0"
1!
0.
1/
12
01
#175000
1"
1.
11
13
04
00
0-
0#
#200000
0"
0!
0.
0/
02
01
03
14
10
1-
1#
#225000
1"
1.
11
#250000
0"
1!
0.
1/
12
01
#275000
1"
1.
11
13
04
00
0-
0#
#300000
0"
0!
0.
0/
02
01
03
14
10
1-
1#
#325000
1"
1.
11
#350000
0"
1!
0.
1/
12
01
#375000
1"
1.
11
13
04
00
0-
0#
#400000
0"
0!
0.
0/
02
01
03
14
10
1-
1#
#425000
1"
1.
11
#450000
0"
1!
0.
1/
12
01
#475000
1"
1.
11
13
04
00
0-
0#
#500000
0"
0!
0.
0/
02
01
03
14
10
1-
1#
#525000
1"
1.
11
#550000
0"
1!
0.
1/
12
01
#575000
1"
1.
11
13
04
00
0-
0#
#600000
0"
0!
0.
0/
02
01
03
14
10
1-
1#
#625000
1"
1.
11
#650000
0"
1!
0.
1/
12
01
#675000
1"
1.
11
13
04
00
0-
0#
#700000
0"
0!
0.
0/
02
01
03
14
10
1-
1#
#725000
1"
1.
11
#750000
0"
1!
0.
1/
12
01
#775000
1"
1.
11
13
04
00
0-
0#
#800000
0"
0!
0.
0/
02
01
03
14
10
1-
1#
#825000
1"
1.
11
#850000
0"
1!
0.
1/
12
01
#875000
1"
1.
11
13
04
00
0-
0#
#900000
0"
0!
0.
0/
02
01
03
14
10
1-
1#
#925000
1"
1.
11
#950000
0"
1!
0.
1/
12
01
#975000
1"
1.
11
13
04
00
0-
0#
